{
  "txt": {
    "title": "\uD83D\uDCA5Nawet 50% taniej!\uD83D\uDCA5\uD83D\uDECE️ MID SEASON SALE w Gino Rossi!",
    "preview": "Bądź pierwsza i upoluj najlepsze okazje! Promocja trwa do wyczerpania zapasów!",
    "show_in_browser": "Jeśli wiadomość nie wyświetla się poprawnie, kliknij <a href=\"{{ synerise-open-in-browser }}\" style=\"font-family: Arial; color: #5a5a5a;\">tutaj</a>",
    "ona": "ONA",
    "on": "ON",
    "torby_damskie": "TORBY DAMSKIE",
    "torby_meskie": "TORBY MĘSKIE",
    "nowosci": "NOWOŚCI",
    "kv": "Gino Rossi mid season sale do -50%",
    "p11": "",
    "p12": "",
    "banner1-cta": "",
    "p21": "",
    "p22": "",
    "banner2-cta": "",
    "usp1": "Darmowa dostawa od 150 zł",
    "usp2": "Darmowy odbiór w salonach",
    "usp3": "Darmowy  zwrot i wymiana",
    "reslink": "<a href=\"{{ synerise-resign-link }}\" style=\"color: #989393\">Zrezygnuj z newslettera.</a>"
  },
  "links": {
    "logo": "https://www.gino-rossi.com/?utm_medium=email&utm_source=ginorossi&utm_campaign=15.11.2019_d_2_mid_season_sale&utm_content=Logo\n",
    "ona": "https://www.gino-rossi.com/ona/obuwie?utm_medium=email&utm_source=ginorossi&utm_campaign=15.11.2019_d_2_mid_season_sale&utm_content=damskie\n",
    "on": "https://www.gino-rossi.com/on/obuwie?utm_medium=email&utm_source=ginorossi&utm_campaign=15.11.2019_d_2_mid_season_sale&utm_content=meskie\n",
    "torby_damskie": "https://www.gino-rossi.com/ona/akcesoria/torebki?utm_medium=email&utm_source=ginorossi&utm_campaign=15.11.2019_d_2_mid_season_sale&utm_content=torby_damskie\n",
    "torby_meskie": "https://www.gino-rossi.com/on/akcesoria/torby?utm_medium=email&utm_source=ginorossi&utm_campaign=15.11.2019_d_2_mid_season_sale&utm_content=torby_meskie\n",
    "nowosci": "https://www.gino-rossi.com/ona/obuwie/nowakolekcja?dir=desc&order=created_at&utm_medium=email&utm_source=ginorossi&utm_campaign=15.11.2019_d_2_mid_season_sale&utm_content=new\n",
    "kv": "https://www.gino-rossi.com/ona/obuwie/sale?utm_medium=email&utm_source=ginorossi&utm_campaign=15.11.2019_d_2_mid_season_sale&utm_content=KV\n",
    "kv-txt1": "https://www.gino-rossi.com/ona/obuwie/sale?utm_medium=email&utm_source=ginorossi&utm_campaign=15.11.2019_d_2_mid_season_sale&utm_content=1\n",
    "kv-txt2": "https://www.gino-rossi.com/ona/obuwie/sale?utm_medium=email&utm_source=ginorossi&utm_campaign=15.11.2019_d_2_mid_season_sale&utm_content=1_1\n",
    "kv-cta": "https://www.gino-rossi.com/ona/obuwie/sale?utm_medium=email&utm_source=ginorossi&utm_campaign=15.11.2019_d_2_mid_season_sale&utm_content=1_2\n",
    "img1": "https://www.gino-rossi.com/ona/obuwie/sale?utm_medium=email&utm_source=ginorossi&utm_campaign=15.11.2019_d_2_mid_season_sale&utm_content=2\n",
    "p11": "https://www.gino-rossi.com/ona/obuwie/czolenka/dci679-cm8-0760-5700-0?utm_medium=email&utm_source=ginorossi&utm_campaign=15.11.2019_d_2_mid_season_sale&utm_content=2_1",
    "p12": "https://www.gino-rossi.com/ona/obuwie/czolenka/dci545-cm9-0760-5700-0?utm_medium=email&utm_source=ginorossi&utm_campaign=15.11.2019_d_2_mid_season_sale&utm_content=2_2\n",
    "img2": "https://www.gino-rossi.com/ona/obuwie/sale?utm_medium=email&utm_source=ginorossi&utm_campaign=15.11.2019_d_2_mid_season_sale&utm_content=3\n",
    "p21": "https://www.gino-rossi.com/ona/obuwie/polbuty/dpi555-776-0709-9900-0?utm_medium=email&utm_source=ginorossi&utm_campaign=15.11.2019_d_2_mid_season_sale&utm_content=3_1\n",
    "p22": "https://www.gino-rossi.com/ona/obuwie/polbuty/dpi843-s56-4900-9900-0?utm_medium=email&utm_source=ginorossi&utm_campaign=15.11.2019_d_2_mid_season_sale&utm_content=3_2\n",
    "banner2": "https://www.gino-rossi.com/ona/obuwie/sale?utm_medium=email&utm_source=ginorossi&utm_campaign=15.11.2019_d_2_mid_season_sale&utm_content=4\n",
    "banner2-cta": "https://www.gino-rossi.com/ona/obuwie/sale?utm_medium=email&utm_source=ginorossi&utm_campaign=15.11.2019_d_2_mid_season_sale&utm_content=4_cta\n",
    "usp1": "https://www.gino-rossi.com/dostawa-i-koszty-wysylki?utm_medium=email&utm_source=ginorossi&utm_campaign=15.11.2019_d_2_mid_season_sale&utm_content=usp_1\n",
    "usp2": "https://www.gino-rossi.com/dostawa-i-koszty-wysylki?utm_medium=email&utm_source=ginorossi&utm_campaign=15.11.2019_d_2_mid_season_sale&utm_content=usp_2\n",
    "usp3": "https://www.gino-rossi.com/darmowe-zwroty?utm_medium=email&utm_source=ginorossi&utm_campaign=15.11.2019_d_2_mid_season_sale&utm_content=usp_3\n",
    "con_tel": "callto:+48 59 727 98 48",
    "con_mes": "mailto:e-sklep@gino-rossi.com",
    "con_per": "",
    "s_fb": "https://www.facebook.com/GinoRossiSA",
    "s_in": "https://www.instagram.com/ginorossiofficial/"
  }
}
